Analysis Results Datasets – ARD to Tables with {tfrmt}
…
{cards} includes a helper function rename_ard_columns() to transform native {cards} output to display-ready data

library(cards)

pharmaverseadam::adsl |> 
  dplyr::filter(SAFFL=="Y") |> 
  ard_categorical(
    by = TRT01A,
    variables = c("AGEGR1","SEX")
  ) |> 
   rename_ard_columns(columns = all_ard_groups(),
                      unlist = c("variable_level", "stat")) |> 
  dplyr::select(-c(fmt_fn, warning, error))

# A tibble: 36 × 7
   TRT01A  variable variable_level context     stat_name stat_label   stat
   <chr>   <chr>    <chr>          <chr>       <chr>     <chr>       <dbl>
 1 Placebo AGEGR1   >64            categorical n         n          72    
 2 Placebo AGEGR1   >64            categorical N         N          86    
 3 Placebo AGEGR1   >64            categorical p         %           0.837
 4 Placebo AGEGR1   18-64          categorical n         n          14    
 5 Placebo AGEGR1   18-64          categorical N         N          86    
 6 Placebo AGEGR1   18-64          categorical p         %           0.163
 7 Placebo SEX      F              categorical n         n          53    
 8 Placebo SEX      F              categorical N         N          86    
 9 Placebo SEX      F              categorical p         %           0.616
10 Placebo SEX      M              categorical n         n          33    
# ℹ 26 more rows
…
